<svg xmlns="http://www.w3.org/2000/svg" width="32" height="32" viewBox="0 0 32 32">
    <rect id="Rectangle_112" data-name="Rectangle 112" width="31" height="31" rx="7" transform="translate(0.5 0.5)" fill="#e2901c" stroke="rgba(0,0,0,0)" stroke-miterlimit="10" stroke-width="1"/>
    <g id="cards" transform="translate(-229.75 -373.75)">
        <path id="Vector" d="M13.285.481H-.157A.6.6,0,0,1-.75-.135.6.6,0,0,1-.157-.75H13.285a.6.6,0,0,1,.593.615A.6.6,0,0,1,13.285.481Z" transform="translate(238 390.885)" fill="#fff"/>
        <path id="Vector-2" data-name="Vector" d="M2.832-.75H10.3A3.811,3.811,0,0,1,13.1.041a4.054,4.054,0,0,1,.775,2.885V8.793s0,0,0,.006a3.828,3.828,0,0,1-.809,2.783,3.715,3.715,0,0,1-2.773.755H2.832a3.811,3.811,0,0,1-2.806-.791A4.054,4.054,0,0,1-.75,8.661V2.926A4.307,4.307,0,0,1-.138.234,3,3,0,0,1,2.18-.733h.01C2.389-.742,2.6-.75,2.832-.75Zm9.86,9.539V2.926c0-1.105-.126-1.706-.422-2.009S11.366.481,10.3.481H2.832c-.206,0-.4.007-.587.016C.822.584.436.9.436,2.926V8.661c0,1.105.126,1.706.422,2.009s.9.436,1.973.436H10.3a2.916,2.916,0,0,0,1.96-.421C12.547,10.4,12.681,9.817,12.692,8.789Z" transform="translate(238 385.913)" fill="#fff"/>
        <path id="Vector-3" data-name="Vector" d="M2.832-.75H10.3A3.811,3.811,0,0,1,13.1.041a4.054,4.054,0,0,1,.775,2.885V8.661a4.307,4.307,0,0,1-.612,2.692,3,3,0,0,1-2.319.966.581.581,0,0,1-.442-.167.627.627,0,0,1-.186-.448V5.839c0-1.105-.126-1.706-.422-2.009s-.9-.436-1.973-.436H.46c-.208,0-.4.008-.592.016A.581.581,0,0,1-.57,3.236a.627.627,0,0,1-.18-.448A3.828,3.828,0,0,1,.059,0,3.715,3.715,0,0,1,2.832-.75Zm8.674,11.772c.917-.17,1.186-.668,1.186-2.361V2.926c0-1.105-.126-1.706-.422-2.009S11.366.481,10.3.481H2.832A2.916,2.916,0,0,0,.872.9,1.975,1.975,0,0,0,.463,2.163H7.924a3.811,3.811,0,0,1,2.806.791,4.054,4.054,0,0,1,.775,2.885Z" transform="translate(240.372 383)" fill="#fff"/>
        <path id="Vector-4" data-name="Vector" d="M1.2.481H-.157A.6.6,0,0,1-.75-.135.6.6,0,0,1-.157-.75H1.2A.6.6,0,0,1,1.8-.135.6.6,0,0,1,1.2.481Z" transform="translate(240.57 395.152)" fill="#fff"/>
        <path id="Vector-5" data-name="Vector" d="M2.563.481H-.157A.6.6,0,0,1-.75-.135.6.6,0,0,1-.157-.75h2.72a.6.6,0,0,1,.593.615A.6.6,0,0,1,2.563.481Z" transform="translate(243.622 395.152)" fill="#fff"/>
    </g>
</svg>
