<svg xmlns="http://www.w3.org/2000/svg" width="15.2" height="16.2" viewBox="0 0 15.2 16.2">
    <g id="vuesax_linear_profile-2user" data-name="vuesax/linear/profile-2user" transform="translate(-173.495 -253.15)">
        <g id="profile-2user" transform="translate(173.595 253.25)">
            <path id="Vector" d="M3.141,7.036l-.054,0a.779.779,0,0,0-.136,0,.529.529,0,0,1-.068,0A3.685,3.685,0,0,1,.307,5.854,3.945,3.945,0,0,1-.75,3.147,3.841,3.841,0,0,1,3.025-.75,3.841,3.841,0,0,1,6.8,3.147a3.831,3.831,0,0,1-3.64,3.889ZM3.025.376A2.731,2.731,0,0,0,.341,3.147,2.712,2.712,0,0,0,2.89,5.909a1.841,1.841,0,0,1,.263,0A2.725,2.725,0,0,0,5.708,3.144,2.731,2.731,0,0,0,3.025.376Z" transform="translate(2.361 0.75)" fill="#fff" stroke="#fff" stroke-linecap="round" stroke-width="0.2"/>
            <path id="Vector-2" data-name="Vector" d="M-.205,5.632a.552.552,0,0,1-.541-.5.559.559,0,0,1,.482-.622A1.358,1.358,0,0,1,0,4.5,2.032,2.032,0,0,0,1.89,2.441,2.035,2.035,0,0,0-.11.376.554.554,0,0,1-.655-.187.554.554,0,0,1-.11-.75,3.146,3.146,0,0,1,2.981,2.441a3.231,3.231,0,0,1-.869,2.218A3.035,3.035,0,0,1,0,5.632a.529.529,0,0,1-.088,0,.275.275,0,0,0-.061,0A.534.534,0,0,1-.205,5.632Z" transform="translate(10.885 2.252)" fill="#fff" stroke="#fff" stroke-linecap="round" stroke-width="0.2"/>
            <path id="Vector-3" data-name="Vector" d="M4.761-.75A6.984,6.984,0,0,1,8.7.375a3.256,3.256,0,0,1,1.563,2.665A3.268,3.268,0,0,1,8.7,5.719,6.985,6.985,0,0,1,4.755,6.85,6.985,6.985,0,0,1,.812,5.719,3.255,3.255,0,0,1-.75,3.054,3.268,3.268,0,0,1,.812.376,7.039,7.039,0,0,1,4.761-.75ZM4.755,5.724a5.914,5.914,0,0,0,3.337-.941A2.178,2.178,0,0,0,9.17,3.042a2.167,2.167,0,0,0-1.077-1.73A5.914,5.914,0,0,0,4.761.376a5.966,5.966,0,0,0-3.344.937A2.176,2.176,0,0,0,.341,3.052a2.167,2.167,0,0,0,1.077,1.73A5.915,5.915,0,0,0,4.755,5.724Z" transform="translate(0.75 9.15)" fill="#fff" stroke="#fff" stroke-linecap="round" stroke-width="0.2"/>
            <path id="Vector-4" data-name="Vector" d="M-.205,4.881a.55.55,0,0,1-.533-.448.563.563,0,0,1,.423-.666,2.936,2.936,0,0,0,1.2-.549l0,0a1.474,1.474,0,0,0,.633-1.153A1.474,1.474,0,0,0,.894.909l0,0A3.006,3.006,0,0,0-.3.362.564.564,0,0,1-.715-.311.545.545,0,0,1-.063-.736,4.07,4.07,0,0,1,1.55.01,2.616,2.616,0,0,1,2.617,2.062,2.616,2.616,0,0,1,1.551,4.113a4.016,4.016,0,0,1-1.644.756A.531.531,0,0,1-.205,4.881Z" transform="translate(12.383 9.76)" fill="#fff" stroke="#fff" stroke-linecap="round" stroke-width="0.2"/>
        </g>
    </g>
</svg>
